<svg width="38" height="38" viewBox="0 0 38 38" fill="none" xmlns="http://www.w3.org/2000/svg">
<path d="M25 24.0002L25.3 24.4C25.3418 24.4557 25.3672 24.522 25.3735 24.5913C25.3797 24.6607 25.3666 24.7304 25.3354 24.7927C25.3043 24.855 25.2564 24.9074 25.1972 24.944C25.1379 24.9806 25.0696 25 25 25H13C12.9304 25 12.8621 24.9806 12.8029 24.944C12.7436 24.9074 12.6957 24.855 12.6646 24.7927C12.6334 24.7304 12.6203 24.6607 12.6265 24.5913C12.6328 24.522 12.6582 24.4557 12.7 24.4L13 24.0002V17.5C13 15.9087 13.6321 14.3826 14.7574 13.2574C15.8826 12.1321 17.4087 11.5 19 11.5C20.5913 11.5 22.1174 12.1321 23.2426 13.2574C24.3679 14.3826 25 15.9087 25 17.5V24.0002ZM17.125 25.75H20.875C20.875 26.2473 20.6775 26.7242 20.3258 27.0758C19.9742 27.4275 19.4973 27.625 19 27.625C18.5027 27.625 18.0258 27.4275 17.6742 27.0758C17.3225 26.7242 17.125 26.2473 17.125 25.75Z" fill="#8D8D8D"/>
<circle cx="24" cy="14" r="4" fill="#D22B2A"/>
</svg>
